# setting LC_ALL to "C"
# --> Including file '/workdir/Gaudi/GaudiHive/options/ViewIsolationTest.py'
# <-- End of file '/workdir/Gaudi/GaudiHive/options/ViewIsolationTest.py'
# Dumping all configurables and properties (different from default)
{'A1': {'Cardinality': 1,
        'OutputLevel': 3,
        'baseViewName': 'viewOne',
        'viewNodeName': 'viewNodeOne',
        'viewNumber': 2},
 'A2': {'Cardinality': 1, 'OutputLevel': 3, 'viewNodeName': ''},
 'A3': {'Cardinality': 1, 'OutputLevel': 3, 'viewNodeName': ''},
 'A4': {'Cardinality': 1,
        'OutputLevel': 3,
        'baseViewName': 'viewTwo',
        'viewNodeName': 'viewNodeTwo',
        'viewNumber': 2},
 'A5': {'Cardinality': 1, 'OutputLevel': 3, 'viewNodeName': ''},
 'AlgResourcePool': {'OutputLevel': 3},
 'ApplicationMgr': {'EventLoop': 'HiveSlimEventLoopMgr/HiveSlimEventLoopMgr',
                    'EvtMax': 10,
                    'EvtSel': 'NONE',
                    'ExtSvc': ['HiveWhiteBoard/EventDataSvc'],
                    'MessageSvcType': 'InertMessageSvc',
                    'TopAlg': ['GaudiSequencer/createViewSeq']},
 'AvalancheSchedulerSvc': {'OutputLevel': 3, 'ThreadPoolSize': 1},
 'EventDataSvc': {'EventSlots': 1},
 'HiveSlimEventLoopMgr': {'OutputLevel': 3,
                          'SchedulerName': 'AvalancheSchedulerSvc'},
 'createViewSeq': {'Members': ['Test::ViewTester/A1',
                               'GaudiSequencer/viewNodeOne',
                               'Test::ViewTester/A4',
                               'GaudiSequencer/viewNodeTwo',
                               'Test::ViewTester/A5'],
                   'OutputLevel': 3,
                   'Sequential': True},
 'extraNode': {'Members': ['Test::ViewTester/A2', 'Test::ViewTester/A3'],
               'OutputLevel': 3,
               'Sequential': True},
 'viewNodeOne': {'Members': ['GaudiSequencer/extraNode'],
                 'OutputLevel': 3,
                 'Sequential': False},
 'viewNodeTwo': {'Members': ['GaudiSequencer/extraNode'],
                 'OutputLevel': 3,
                 'Sequential': False}}
MessageSvc           INFO Activating in a separate thread
ApplicationMgr    SUCCESS 
====================================================================================================================================
                                                   Welcome to ApplicationMgr (GaudiCoreSvc v30r1)
                                          running on bb169f195cdc on Fri Feb  9 14:48:04 2018
====================================================================================================================================
ApplicationMgr       INFO Application Manager Configured successfully
ThreadPoolSvc        INFO no thread init tools attached
AvalancheSchedu...   INFO Activating scheduler in a separate thread
AlgResourcePool      INFO TopAlg list empty. Recovering the one of Application Manager
createViewSeq        INFO Member list: Test::ViewTester/A1, GaudiSequencer/viewNodeOne, Test::ViewTester/A4, GaudiSequencer/viewNodeTwo, Test::ViewTester/A5
RndmGenSvc.Engine    INFO Generator engine type:CLHEP::RanluxEngine
RndmGenSvc.Engine    INFO Current Seed:1234567 Luxury:3
RndmGenSvc           INFO Using Random engine:HepRndm::Engine<CLHEP::RanluxEngine>
ToolSvc.Sequenc...   INFO This machine has a speed about   4.00 times the speed of a 2.8 GHz Xeon.
viewNodeOne          INFO Member list: GaudiSequencer/extraNode
extraNode            INFO Member list: Test::ViewTester/A2, Test::ViewTester/A3
viewNodeTwo          INFO Member list: GaudiSequencer/extraNode
AvalancheSchedu...   INFO Found 5 algorithms
AvalancheSchedu...   INFO Data Dependencies for Algorithms:
  A1
      none
  A2
      none
  A3
      none
  A4
      none
  A5
      none
PrecedenceSvc        INFO Assembling CF and DF task precedence rules
PrecedenceSvc        INFO PrecedenceSvc initialized successfully
AvalancheSchedu...   INFO Concurrency level information:
AvalancheSchedu...   INFO  o Number of events in flight: 1
AvalancheSchedu...   INFO  o TBB thread pool size:  'ThreadPoolSize':1
HiveSlimEventLo...WARNING Unable to locate service "EventSelector" 
HiveSlimEventLo...WARNING No events will be processed from external input.
HistogramPersis...WARNING Histograms saving not required.
HiveSlimEventLo...   INFO Found 0 events in black list
ApplicationMgr       INFO Application Manager Initialized successfully
ApplicationMgr       INFO Application Manager Started successfully
HiveSlimEventLo...   INFO Starting loop on events
A1                   INFO Running in whole event context
A1                   INFO Attached viewOne0 to node viewNodeOne
A1                   INFO Attached viewOne1 to node viewNodeOne
A2                   INFO Running in view viewOne0
A2                   INFO Running in view viewOne1
A3                   INFO Running in view viewOne0
A3                   INFO Running in view viewOne1
A4                   INFO Running in whole event context
A4                   INFO Attached viewTwo0 to node viewNodeTwo
A4                   INFO Attached viewTwo1 to node viewNodeTwo
A2                   INFO Running in view viewTwo0
A2                   INFO Running in view viewTwo1
A3                   INFO Running in view viewTwo0
A3                   INFO Running in view viewTwo1
A5                   INFO Running in whole event context
A1                   INFO Running in whole event context
A1                   INFO Attached viewOne0 to node viewNodeOne
A1                   INFO Attached viewOne1 to node viewNodeOne
A2                   INFO Running in view viewOne0
A2                   INFO Running in view viewOne1
A3                   INFO Running in view viewOne0
A3                   INFO Running in view viewOne1
A4                   INFO Running in whole event context
A4                   INFO Attached viewTwo0 to node viewNodeTwo
A4                   INFO Attached viewTwo1 to node viewNodeTwo
A2                   INFO Running in view viewTwo0
A2                   INFO Running in view viewTwo1
A3                   INFO Running in view viewTwo0
A3                   INFO Running in view viewTwo1
A5                   INFO Running in whole event context
A1                   INFO Running in whole event context
A1                   INFO Attached viewOne0 to node viewNodeOne
A1                   INFO Attached viewOne1 to node viewNodeOne
A2                   INFO Running in view viewOne0
A2                   INFO Running in view viewOne1
A3                   INFO Running in view viewOne0
A3                   INFO Running in view viewOne1
A4                   INFO Running in whole event context
A4                   INFO Attached viewTwo0 to node viewNodeTwo
A4                   INFO Attached viewTwo1 to node viewNodeTwo
A2                   INFO Running in view viewTwo0
A2                   INFO Running in view viewTwo1
A3                   INFO Running in view viewTwo0
A3                   INFO Running in view viewTwo1
A5                   INFO Running in whole event context
A1                   INFO Running in whole event context
A1                   INFO Attached viewOne0 to node viewNodeOne
A1                   INFO Attached viewOne1 to node viewNodeOne
A2                   INFO Running in view viewOne0
A2                   INFO Running in view viewOne1
A3                   INFO Running in view viewOne0
A3                   INFO Running in view viewOne1
A4                   INFO Running in whole event context
A4                   INFO Attached viewTwo0 to node viewNodeTwo
A4                   INFO Attached viewTwo1 to node viewNodeTwo
A2                   INFO Running in view viewTwo0
A2                   INFO Running in view viewTwo1
A3                   INFO Running in view viewTwo0
A3                   INFO Running in view viewTwo1
A5                   INFO Running in whole event context
A1                   INFO Running in whole event context
A1                   INFO Attached viewOne0 to node viewNodeOne
A1                   INFO Attached viewOne1 to node viewNodeOne
A2                   INFO Running in view viewOne0
A2                   INFO Running in view viewOne1
A3                   INFO Running in view viewOne0
A3                   INFO Running in view viewOne1
A4                   INFO Running in whole event context
A4                   INFO Attached viewTwo0 to node viewNodeTwo
A4                   INFO Attached viewTwo1 to node viewNodeTwo
A2                   INFO Running in view viewTwo0
A2                   INFO Running in view viewTwo1
A3                   INFO Running in view viewTwo0
A3                   INFO Running in view viewTwo1
A5                   INFO Running in whole event context
A1                   INFO Running in whole event context
A1                   INFO Attached viewOne0 to node viewNodeOne
A1                   INFO Attached viewOne1 to node viewNodeOne
A2                   INFO Running in view viewOne0
A2                   INFO Running in view viewOne1
A3                   INFO Running in view viewOne0
A3                   INFO Running in view viewOne1
A4                   INFO Running in whole event context
A4                   INFO Attached viewTwo0 to node viewNodeTwo
A4                   INFO Attached viewTwo1 to node viewNodeTwo
A2                   INFO Running in view viewTwo0
A2                   INFO Running in view viewTwo1
A3                   INFO Running in view viewTwo0
A3                   INFO Running in view viewTwo1
A5                   INFO Running in whole event context
A1                   INFO Running in whole event context
A1                   INFO Attached viewOne0 to node viewNodeOne
A1                   INFO Attached viewOne1 to node viewNodeOne
A2                   INFO Running in view viewOne0
A2                   INFO Running in view viewOne1
A3                   INFO Running in view viewOne0
A3                   INFO Running in view viewOne1
A4                   INFO Running in whole event context
A4                   INFO Attached viewTwo0 to node viewNodeTwo
A4                   INFO Attached viewTwo1 to node viewNodeTwo
A2                   INFO Running in view viewTwo0
A2                   INFO Running in view viewTwo1
A3                   INFO Running in view viewTwo0
A3                   INFO Running in view viewTwo1
A5                   INFO Running in whole event context
A1                   INFO Running in whole event context
A1                   INFO Attached viewOne0 to node viewNodeOne
A1                   INFO Attached viewOne1 to node viewNodeOne
A2                   INFO Running in view viewOne0
A2                   INFO Running in view viewOne1
A3                   INFO Running in view viewOne0
A3                   INFO Running in view viewOne1
A4                   INFO Running in whole event context
A4                   INFO Attached viewTwo0 to node viewNodeTwo
A4                   INFO Attached viewTwo1 to node viewNodeTwo
A2                   INFO Running in view viewTwo0
A2                   INFO Running in view viewTwo1
A3                   INFO Running in view viewTwo0
A3                   INFO Running in view viewTwo1
A5                   INFO Running in whole event context
A1                   INFO Running in whole event context
A1                   INFO Attached viewOne0 to node viewNodeOne
A1                   INFO Attached viewOne1 to node viewNodeOne
A2                   INFO Running in view viewOne0
A2                   INFO Running in view viewOne1
A3                   INFO Running in view viewOne0
A3                   INFO Running in view viewOne1
A4                   INFO Running in whole event context
A4                   INFO Attached viewTwo0 to node viewNodeTwo
A4                   INFO Attached viewTwo1 to node viewNodeTwo
A2                   INFO Running in view viewTwo0
A2                   INFO Running in view viewTwo1
A3                   INFO Running in view viewTwo0
A3                   INFO Running in view viewTwo1
A5                   INFO Running in whole event context
A1                   INFO Running in whole event context
A1                   INFO Attached viewOne0 to node viewNodeOne
A1                   INFO Attached viewOne1 to node viewNodeOne
A2                   INFO Running in view viewOne0
A2                   INFO Running in view viewOne1
A3                   INFO Running in view viewOne0
A3                   INFO Running in view viewOne1
A4                   INFO Running in whole event context
A4                   INFO Attached viewTwo0 to node viewNodeTwo
A4                   INFO Attached viewTwo1 to node viewNodeTwo
A2                   INFO Running in view viewTwo0
A2                   INFO Running in view viewTwo1
A3                   INFO Running in view viewTwo0
A3                   INFO Running in view viewTwo1
A5                   INFO Running in whole event context
HiveSlimEventLo...   INFO ---> Loop Finished (skipping 1st evt) -  WSS 49.5 total time 1668637
HiveSlimEventLo...   INFO 0 events were SKIPed
ApplicationMgr       INFO Application Manager Stopped successfully
HiveSlimEventLo...   INFO Histograms converted successfully according to request.
AvalancheSchedu...   INFO Joining Scheduler thread
ToolSvc              INFO Removing all tools created by ToolSvc
ToolSvc.Sequenc...   INFO --------------------------------------------------------------------------------------------------
ToolSvc.Sequenc...   INFO This machine has a speed about   4.00 times the speed of a 2.8 GHz Xeon.
ToolSvc.Sequenc...   INFO Algorithm          (millisec) |    <user> |   <clock> |      min       max    sigma | entries | total (s) |
ToolSvc.Sequenc...   INFO --------------------------------------------------------------------------------------------------
ToolSvc.Sequenc...   INFO --------------------------------------------------------------------------------------------------
ApplicationMgr       INFO Application Manager Finalized successfully
ApplicationMgr       INFO Application Manager Terminated successfully
